<?xml version="1.0" encoding="UTF-8" standalone="no"?>
<svg data-bx-workspace="master" width="512" height="512" viewBox="845.036 980.221 3423.083 3500.404" version="1.1" id="svg5" xml:space="preserve" xmlns="http://www.w3.org/2000/svg" xmlns:xlink="http://www.w3.org/1999/xlink">
	<defs id="defs4">
		<linearGradient id="mastodon-inner" data-bx-pinned="true" gradientUnits="userSpaceOnUse" x1="2562.5" y1="1820" x2="2562.5" y2="2800">
			<stop offset="0" style="stop-color: rgb(99, 100, 255);" id="stop1" />
			<stop offset="1" style="stop-color: rgb(86, 58, 204);" id="stop2" />
		</linearGradient>
		<linearGradient id="mastodon-outer" data-bx-pinned="true" gradientUnits="userSpaceOnUse" x1="2556.9231" y1="980" x2="2556.9231" y2="4480">
			<stop offset="0" style="stop-color: rgb(97, 93, 246);" id="stop3" />
			<stop offset="1" style="stop-color: rgb(92, 75, 224);" id="stop4" />
		</linearGradient>
	</defs>
	<rect id="logo" style="display:inline" x="1013.964" y="1122.922" width="3081.835" height="2767.21" fill="#ffffff" />
	<path id="outer" style="display:inline;fill-rule:nonzero;paint-order:stroke;fill:url(#mastodon-outer)" d="m 2323,4258 c -27.75,-27.75 -52.031,-52.031 -74.172,-73.299 -22.14,-21.267 -42.14,-39.522 -61.328,-55.217 -19.187,-15.695 -37.562,-28.832 -56.453,-39.865 -18.891,-11.033 -38.297,-19.963 -59.547,-27.244 -21.25,-7.281 -44.344,-12.914 -70.609,-17.353 -26.266,-4.44 -55.703,-7.686 -89.641,-10.194 -33.937,-2.508 -72.375,-4.277 -116.641,-5.763 -44.265,-1.487 -94.359,-2.69 -151.609,-4.065 -40.5,-1.125 -76.99,-1.578 -110.169,-1.671 -33.179,-0.093 -63.047,0.175 -90.304,0.492 -27.256,0.317 -51.901,0.684 -74.633,0.789 -22.732,0.105 -43.551,-0.052 -63.156,-0.781 -19.605,-0.729 -37.996,-2.031 -55.872,-4.217 -17.876,-2.186 -35.237,-5.256 -52.783,-9.52 -17.545,-4.265 -35.275,-9.724 -53.888,-16.69 -18.612,-6.965 -38.108,-15.437 -59.186,-25.726 -11.035,-5.387 -21.671,-11.062 -31.938,-17.081 -10.267,-6.018 -20.166,-12.381 -29.728,-19.141 -9.561,-6.761 -18.786,-13.919 -27.703,-21.53 -8.918,-7.611 -17.529,-15.674 -25.865,-24.245 -8.335,-8.571 -16.395,-17.648 -24.211,-27.288 -7.815,-9.639 -15.385,-19.841 -22.742,-30.658 -7.357,-10.817 -14.5,-22.25 -21.46,-34.354 C 892.402,3781.275 885.625,3768.5 879,3755 c -4.25,-8.75 -7.969,-16.406 -11.223,-25.42 -3.253,-9.014 -6.042,-19.385 -8.433,-33.564 -2.391,-14.18 -4.383,-32.168 -6.043,-56.416 -1.66,-24.248 -2.988,-54.756 -4.051,-93.975 -1.062,-39.219 -1.859,-87.148 -2.457,-146.24 -0.598,-59.092 -0.996,-129.346 -1.262,-213.213 -0.265,-83.867 -0.398,-181.348 -0.465,-294.893 C 845,2777.734 845,2648.125 845,2500 c 0,-148.125 0,-277.734 0.043,-391.25 0.043,-113.515 0.129,-210.937 0.301,-294.687 0.172,-83.75 0.429,-153.828 0.816,-212.657 0.387,-58.828 0.903,-106.406 1.59,-145.156 0.688,-38.75 1.547,-68.672 2.621,-92.187 1.074,-23.516 2.363,-40.625 3.91,-53.75 1.547,-13.125 3.352,-22.266 5.457,-29.844 2.106,-7.578 4.512,-13.594 7.262,-20.469 5.5,-13.25 12.125,-26.609 19.723,-39.924 7.597,-13.314 16.168,-26.584 25.558,-39.654 9.391,-13.071 19.602,-25.942 30.481,-38.459 10.879,-12.518 22.426,-24.682 34.488,-36.338 12.063,-11.656 24.641,-22.805 37.582,-33.291 12.941,-10.486 26.246,-20.311 39.762,-29.318 13.516,-9.008 27.242,-17.2 41.027,-24.42 13.785,-7.221 27.629,-13.471 41.379,-18.596 6.625,-2.5 12.781,-4.688 21.1,-6.602 8.318,-1.914 18.799,-3.554 34.072,-4.96 15.274,-1.407 35.34,-2.579 62.83,-3.555 27.491,-0.977 62.405,-1.758 107.373,-2.383 44.969,-0.625 99.993,-1.094 167.702,-1.445 67.709,-0.352 148.103,-0.586 243.814,-0.742 95.711,-0.157 206.738,-0.235 335.713,-0.274 C 2238.578,980 2385.5,980 2553,980 c 168.25,0 315.75,0 445.176,0.039 129.426,0.039 240.777,0.118 336.73,0.274 95.954,0.156 176.508,0.39 244.34,0.742 67.832,0.351 122.942,0.82 168.004,1.445 45.063,0.625 80.078,1.406 107.723,2.383 27.645,0.977 47.918,2.149 63.496,3.555 15.578,1.406 26.461,3.046 35.324,4.96 8.863,1.914 15.707,4.102 23.207,6.602 14,4.875 28.047,10.953 42,18.096 13.954,7.142 27.813,15.349 41.438,24.482 13.625,9.133 27.016,19.192 40.031,30.037 13.016,10.846 25.656,22.479 37.781,34.76 12.125,12.281 23.735,25.211 34.688,38.651 10.953,13.439 21.25,27.388 30.75,41.708 9.5,14.32 18.203,29.012 25.969,43.936 7.765,14.924 14.593,30.08 20.343,45.33 2.5,6.75 4.688,12.906 6.598,20.779 1.91,7.873 3.543,17.463 4.933,31.08 1.391,13.617 2.54,31.262 3.481,55.245 0.941,23.982 1.676,54.302 2.238,93.271 0.563,38.969 0.953,86.586 1.207,145.162 0.254,58.576 0.372,128.111 0.387,210.916 0.016,82.805 -0.07,178.879 -0.223,290.533 -0.152,111.655 -0.371,238.889 -0.621,384.014 -0.375,147.125 -0.703,275.859 -1.052,388.635 -0.35,112.775 -0.721,209.592 -1.182,292.881 -0.461,83.289 -1.012,153.051 -1.721,211.717 -0.709,58.666 -1.576,106.236 -2.67,145.142 -1.093,38.906 -2.414,69.149 -4.029,93.158 -1.615,24.01 -3.525,41.787 -5.799,55.764 -2.273,13.976 -4.91,24.152 -7.979,32.959 -3.068,8.806 -6.568,16.244 -10.568,24.744 -4.75,10 -10.125,20.094 -16.035,30.182 -5.91,10.087 -12.355,20.169 -19.246,30.146 -6.89,9.976 -14.226,19.848 -21.918,29.514 -7.691,9.666 -15.738,19.127 -24.051,28.283 -8.312,9.156 -16.89,18.008 -25.644,26.455 -8.754,8.447 -17.684,16.49 -26.7,24.03 -9.015,7.539 -18.117,14.574 -27.215,21.005 -9.097,6.432 -18.191,12.26 -27.191,17.385 -11.5,6.625 -22.265,12.5 -33.088,17.723 -10.822,5.222 -21.701,9.792 -33.428,13.808 -11.726,4.016 -24.3,7.477 -38.513,10.481 -14.213,3.004 -30.064,5.55 -48.346,7.738 -18.281,2.187 -38.992,4.016 -62.924,5.582 -23.931,1.567 -51.084,2.871 -82.248,4.012 -31.164,1.14 -66.34,2.117 -106.318,3.027 -39.979,0.91 -84.76,1.754 -135.135,2.629 -68.375,1.125 -126.797,1.641 -177.187,2.184 -50.391,0.543 -92.75,1.113 -129,2.347 -36.25,1.234 -66.391,3.133 -92.344,6.332 -25.953,3.199 -47.719,7.699 -67.219,14.137 -19.5,6.437 -36.734,14.812 -53.625,25.762 -16.89,10.949 -33.437,24.472 -51.562,41.207 -18.125,16.734 -37.828,36.68 -61.031,60.473 -23.204,23.793 -49.907,51.433 -82.032,83.558 -15.125,15.125 -29.984,29.891 -44.424,44.151 -14.439,14.259 -28.458,28.013 -41.904,41.115 -13.445,13.101 -26.316,25.551 -38.459,37.201 -12.142,11.651 -23.556,22.502 -34.088,32.408 -10.531,9.906 -20.179,18.867 -28.791,26.737 -8.611,7.869 -16.185,14.646 -22.568,20.185 -6.383,5.539 -11.574,9.84 -15.42,12.756 -3.846,2.916 -6.346,4.447 -7.346,4.447 -0.875,0 -3.297,-1.563 -7.103,-4.535 -3.807,-2.973 -8.998,-7.356 -15.413,-12.996 -6.414,-5.641 -14.05,-12.539 -22.748,-20.543 -8.697,-8.004 -18.454,-17.114 -29.111,-27.176 -10.656,-10.063 -22.211,-21.078 -34.502,-32.894 -12.291,-11.817 -25.318,-24.434 -38.92,-37.7 -13.601,-13.266 -27.777,-27.18 -42.365,-41.59 C 2353.25,4288.156 2338.25,4273.25 2323,4258 Z m 365,-662 c 13.375,-3.375 26.375,-6.781 38.959,-10.207 12.584,-3.426 24.752,-6.871 36.463,-10.324 11.711,-3.453 22.965,-6.914 33.721,-10.371 10.756,-3.457 21.014,-6.91 30.732,-10.348 9.719,-3.437 18.899,-6.859 27.498,-10.254 8.6,-3.394 16.62,-6.761 24.018,-10.09 7.398,-3.328 14.176,-6.617 20.291,-9.855 6.115,-3.238 11.568,-6.426 16.318,-9.551 2.75,-1.75 5.187,-3.406 7.348,-5.088 2.16,-1.681 4.042,-3.388 5.683,-5.24 1.641,-1.851 3.039,-3.847 4.231,-6.107 1.191,-2.26 2.175,-4.783 2.988,-7.69 0.812,-2.906 1.453,-6.195 1.957,-9.986 0.504,-3.791 0.871,-8.084 1.137,-12.998 0.265,-4.914 0.429,-10.449 0.527,-16.725 0.098,-6.275 0.129,-13.291 0.129,-21.166 0,-10.125 0.187,-18.906 0.228,-26.48 0.041,-7.575 -0.064,-13.942 -0.65,-19.239 -0.586,-5.296 -1.652,-9.523 -3.533,-12.816 -1.881,-3.293 -4.576,-5.652 -8.42,-7.215 -3.844,-1.562 -8.836,-2.328 -15.311,-2.433 -6.474,-0.106 -14.432,0.449 -24.205,1.527 -9.773,1.078 -21.363,2.68 -35.103,4.668 -13.74,1.988 -29.631,4.363 -48.006,6.988 -6.875,1 -14.656,1.985 -23.174,2.942 -8.517,0.957 -17.771,1.886 -27.592,2.777 -9.82,0.89 -20.207,1.742 -30.99,2.543 -10.783,0.8 -21.963,1.55 -33.369,2.238 -11.406,0.687 -23.039,1.312 -34.728,1.863 -11.69,0.551 -23.436,1.027 -35.069,1.418 -11.633,0.391 -23.152,0.696 -34.388,0.903 -11.237,0.207 -22.19,0.316 -32.69,0.316 -17.125,0 -32.453,-0.031 -46.285,-0.131 -13.832,-0.1 -26.168,-0.268 -37.309,-0.541 -11.14,-0.274 -21.086,-0.652 -30.136,-1.174 -9.051,-0.521 -17.207,-1.185 -24.77,-2.029 -7.562,-0.844 -14.531,-1.867 -21.207,-3.107 -6.676,-1.241 -13.058,-2.698 -19.449,-4.409 -6.39,-1.711 -12.789,-3.675 -19.496,-5.931 -6.707,-2.256 -13.723,-4.803 -21.348,-7.678 -5.625,-2 -11.078,-4.063 -16.355,-6.186 -5.277,-2.123 -10.379,-4.306 -15.301,-6.548 -4.922,-2.243 -9.664,-4.543 -14.223,-6.901 -4.558,-2.357 -8.933,-4.771 -13.121,-7.24 -4.187,-2.469 -8.187,-4.992 -11.996,-7.568 -3.809,-2.577 -7.426,-5.206 -10.848,-7.885 -3.421,-2.68 -6.648,-5.41 -9.675,-8.189 -3.028,-2.78 -5.856,-5.608 -8.481,-8.483 -4.375,-4.625 -8.64,-9.938 -12.756,-15.811 -4.115,-5.873 -8.079,-12.306 -11.853,-19.173 -3.773,-6.868 -7.355,-14.168 -10.705,-21.776 -3.35,-7.607 -6.467,-15.521 -9.311,-23.615 -2.843,-8.094 -5.414,-16.367 -7.67,-24.693 -2.255,-8.327 -4.197,-16.706 -5.783,-25.01 -1.586,-8.305 -2.816,-16.535 -3.65,-24.564 -0.834,-8.03 -1.272,-15.858 -1.272,-23.358 0,-5.375 0.047,-10.094 0.274,-14.205 0.226,-4.112 0.633,-7.616 1.351,-10.561 0.719,-2.945 1.75,-5.332 3.227,-7.208 1.476,-1.877 3.398,-3.245 5.898,-4.151 2.5,-0.906 5.578,-1.351 9.367,-1.385 3.79,-0.033 8.29,0.346 13.633,1.088 5.344,0.742 11.532,1.848 18.696,3.268 7.164,1.42 15.304,3.154 24.554,5.154 3.25,0.75 6.688,1.5 10.252,2.242 3.565,0.742 7.256,1.477 11.014,2.196 3.758,0.718 7.582,1.421 11.412,2.101 3.83,0.68 7.666,1.336 11.447,1.961 3.782,0.625 7.508,1.219 11.119,1.773 3.612,0.555 7.108,1.071 10.428,1.54 3.321,0.468 6.465,0.89 9.373,1.257 2.908,0.367 5.58,0.68 7.955,0.93 2.375,0.25 5.297,0.578 8.684,0.973 3.387,0.394 7.238,0.855 11.472,1.371 4.235,0.515 8.852,1.086 13.77,1.699 4.918,0.613 10.137,1.269 15.574,1.957 5.438,0.687 11.094,1.406 16.887,2.144 5.793,0.739 11.723,1.496 17.707,2.262 5.985,0.766 12.024,1.539 18.035,2.309 6.012,0.769 11.996,1.535 17.871,2.285 13.375,1.75 27.594,3.281 42.465,4.594 14.871,1.312 30.395,2.406 46.379,3.281 15.985,0.875 32.43,1.531 49.145,1.969 16.714,0.437 33.699,0.656 50.761,0.656 17.063,0 34.203,-0.219 51.231,-0.656 17.027,-0.438 33.941,-1.094 50.55,-1.969 16.61,-0.875 32.914,-1.969 48.723,-3.281 15.809,-1.313 31.121,-2.844 45.746,-4.594 6.25,-0.625 12.719,-1.281 19.311,-1.957 6.591,-0.676 13.306,-1.371 20.048,-2.074 6.743,-0.703 13.512,-1.414 20.214,-2.121 6.701,-0.707 13.334,-1.411 19.802,-2.098 6.469,-0.688 12.774,-1.359 18.819,-2.004 6.045,-0.644 11.83,-1.262 17.259,-1.84 5.43,-0.578 10.504,-1.117 15.127,-1.605 4.623,-0.489 8.795,-0.926 12.42,-1.301 33.25,-2.75 64.969,-6.672 95.184,-11.779 30.215,-5.108 58.926,-11.401 86.16,-18.893 27.235,-7.492 52.992,-16.183 77.301,-26.088 24.308,-9.904 47.168,-21.021 68.605,-33.365 21.438,-12.344 41.453,-25.914 60.074,-40.724 18.622,-14.811 35.848,-30.862 51.707,-48.167 15.86,-17.305 30.352,-35.863 43.504,-55.689 13.153,-19.826 24.965,-40.92 35.465,-63.295 6.125,-13 11.61,-25.531 16.52,-38.217 4.91,-12.685 9.246,-25.525 13.074,-39.142 3.828,-13.618 7.148,-28.012 10.027,-43.807 2.879,-15.795 5.317,-32.99 7.379,-52.209 2.063,-19.219 3.75,-40.461 5.129,-64.35 1.379,-23.888 2.449,-50.424 3.277,-80.228 0.829,-29.805 1.415,-62.879 1.825,-99.846 0.41,-36.967 0.644,-77.826 0.769,-123.201 0.125,-38 0.219,-71.547 0.246,-101.291 0.028,-29.744 -0.011,-55.685 -0.152,-78.474 -0.14,-22.79 -0.383,-42.426 -0.762,-59.561 -0.379,-17.135 -0.894,-31.768 -1.582,-44.549 -0.687,-12.781 -1.547,-23.711 -2.613,-33.439 -1.066,-9.729 -2.34,-18.257 -3.856,-26.233 -1.515,-7.977 -3.273,-15.402 -5.308,-22.928 -2.035,-7.525 -4.348,-15.15 -6.973,-23.525 -4.125,-12.875 -8.656,-25.438 -13.594,-37.689 -4.937,-12.252 -10.281,-24.194 -16.031,-35.826 -5.75,-11.633 -11.906,-22.957 -18.469,-33.975 -6.562,-11.018 -13.531,-21.729 -20.906,-32.135 -7.375,-10.406 -15.156,-20.508 -23.344,-30.306 -8.187,-9.799 -16.781,-19.296 -25.781,-28.491 -9,-9.195 -18.406,-18.09 -28.219,-26.685 -9.812,-8.596 -20.031,-16.893 -30.656,-24.893 -21.375,-15.875 -41.609,-30.047 -61.697,-42.693 -20.088,-12.647 -40.029,-23.768 -60.819,-33.541 -20.789,-9.774 -42.425,-18.199 -65.904,-25.455 -23.478,-7.256 -48.798,-13.342 -76.955,-18.436 -28.156,-5.094 -59.148,-9.195 -93.971,-12.482 -34.822,-3.287 -73.474,-5.76 -116.951,-7.596 -43.476,-1.836 -91.777,-3.035 -145.896,-3.776 C 2679.688,1490.281 2619.75,1490 2553,1490 c -31.125,0 -60.125,0.062 -87.174,0.193 -27.048,0.131 -52.146,0.33 -75.466,0.604 -23.32,0.273 -44.863,0.621 -64.803,1.049 -19.939,0.428 -38.275,0.935 -55.182,1.529 -16.906,0.594 -32.382,1.274 -46.603,2.045 -14.221,0.772 -27.186,1.635 -39.069,2.596 -11.882,0.961 -22.683,2.019 -32.576,3.181 -9.892,1.162 -18.877,2.428 -27.127,3.803 -21.625,3.5 -42.328,7.391 -62.209,11.721 -19.88,4.33 -38.939,9.099 -57.275,14.357 -18.336,5.258 -35.949,11.004 -52.939,17.287 -16.991,6.284 -33.358,13.104 -49.202,20.51 -15.843,7.406 -31.164,15.399 -46.06,24.026 -14.897,8.627 -29.369,17.888 -43.518,27.834 -14.148,9.945 -27.973,20.574 -41.572,31.935 -13.6,11.361 -26.975,23.455 -40.225,36.33 -20,19.5 -38,39.25 -54.129,59.963 -16.129,20.713 -30.386,42.388 -42.902,65.74 -12.515,23.351 -23.289,48.379 -32.449,75.795 -9.16,27.416 -16.707,57.221 -22.77,90.127 -6.062,32.906 -10.64,68.914 -13.863,108.736 -3.223,39.823 -5.09,83.459 -5.731,131.624 -0.64,48.164 -0.054,100.855 1.629,158.787 1.684,57.931 4.465,121.103 8.215,190.228 1.625,30.25 3.25,58.406 4.91,84.793 1.66,26.387 3.356,51.004 5.121,74.176 1.766,23.172 3.602,44.898 5.543,65.504 1.942,20.605 3.989,40.089 6.176,58.777 2.188,18.687 4.516,36.578 7.02,53.996 2.504,17.418 5.184,34.364 8.074,51.161 2.891,16.796 5.992,33.445 9.34,50.269 3.347,16.824 6.941,33.824 10.816,51.324 3.875,17.875 7.625,34.219 11.397,49.328 3.771,15.109 7.564,28.984 11.525,41.922 3.961,12.937 8.09,24.937 12.533,36.297 4.444,11.359 9.202,22.078 14.42,32.453 5.219,10.375 10.899,20.406 17.186,30.391 6.287,9.984 13.182,19.922 20.83,30.109 7.649,10.188 16.051,20.625 25.353,31.609 9.303,10.985 19.506,22.516 30.756,34.891 17.625,19.25 35.36,37.203 53.408,53.963 18.049,16.76 36.413,32.327 55.295,46.803 18.883,14.477 38.286,27.863 58.413,40.264 20.127,12.4 40.978,23.814 62.759,34.345 21.782,10.532 44.493,20.18 68.338,29.049 23.846,8.869 48.827,16.959 75.147,24.373 26.32,7.414 53.98,14.152 83.185,20.318 26.586,5.613 54.452,10.752 83.754,15.495 2.886,0.467 5.787,0.93 8.701,1.39 1.75,0.25 4.313,0.516 7.59,0.791 3.277,0.276 7.27,0.561 11.879,0.85 4.61,0.289 9.836,0.582 15.582,0.873 5.746,0.291 12.012,0.58 18.699,0.861 6.688,0.282 13.797,0.555 21.231,0.815 7.433,0.26 15.191,0.506 23.175,0.732 7.985,0.227 16.196,0.434 24.535,0.615 8.34,0.182 16.809,0.338 25.309,0.463 12.375,0.125 23.86,0.156 34.637,0.078 10.777,-0.078 20.848,-0.265 30.394,-0.578 9.547,-0.312 18.571,-0.75 27.254,-1.328 8.684,-0.578 17.028,-1.297 25.215,-2.172 8.188,-0.875 16.219,-1.906 24.277,-3.109 8.059,-1.203 16.145,-2.578 24.442,-4.141 8.297,-1.562 16.805,-3.312 25.707,-5.266 8.902,-1.953 18.199,-4.109 28.074,-6.484 z" />
	<path id="inner" style="display:inline;fill-rule:nonzero;paint-order:stroke;fill:url(#mastodon-inner)" d="m 1907,2793 c -3.854,-7.398 -2.396,-20.334 -2.781,-28.328 -1.173,-24.331 -1.722,-48.695 -2.219,-73.047 -1.604,-78.527 -2.006,-157.083 -2,-235.625 0.01,-75.994 -0.172,-152.027 1.75,-228.003 1.397,-55.207 2.217,-112.277 15.621,-166.184 17.537,-70.529 59.709,-128.81 115.034,-174.734 20.869,-17.323 43.488,-33.332 68.204,-44.702 42.195,-19.411 88.361,-21.884 134.151,-22.317 34.425,-0.325 70.085,-1.532 104.115,4.69 23.399,4.278 44.851,13.948 66.125,24.25 20.354,9.856 40.61,20.159 58.729,33.82 31.275,23.581 52.663,56.464 73.271,89.18 6.109,9.699 12.1,19.772 19.351,28.681 2.54,3.121 6.305,7.872 10.858,7.631 5.207,-0.275 8.934,-6.74 11.394,-10.54 7.552,-11.666 13.798,-24.16 21.03,-36.024 21.536,-35.332 48.03,-66.81 82.883,-89.607 31.127,-20.36 68.614,-39.14 105.362,-46.602 29.4,-5.97 60.046,-5.455 89.895,-5.529 36.642,-0.091 75.536,-2.439 111.501,6.16 20.104,4.807 38.538,14.276 56.726,23.83 62.141,32.642 112.798,79.869 143.131,143.815 11.387,24.005 21.746,49.958 26.958,76.108 11.825,59.331 8.342,125.458 8.66,185.586 0.575,108.733 1.078,217.534 -0.211,326.262 -0.548,46.211 -0.369,93.351 -7.65,139.122 -3.377,21.231 -8.66,46.048 -26.085,60.536 -12.995,10.805 -30.571,13.488 -46.863,14.888 -26.475,2.275 -53.664,2.814 -80.223,2.072 -17.937,-0.501 -38.102,-2.043 -52.301,-14.363 -13.66,-11.852 -19.132,-30.647 -22.701,-47.697 -6.888,-32.906 -8.19,-67.072 -9.665,-100.553 -5.253,-119.269 -5.219,-238.704 -10.741,-357.978 -1.119,-24.159 -2.364,-48.316 -3.986,-72.447 -1.124,-16.712 -0.387,-36.145 -5.323,-52.351 -7.811,-25.645 -23.662,-47.879 -48.12,-59.781 -10.009,-4.871 -20.795,-7.992 -31.723,-9.987 -18.565,-3.389 -37.596,-3.645 -56.407,-2.978 -13.724,0.486 -27.723,1.651 -40.756,6.272 -30.129,10.683 -61.906,45.69 -70.994,76.474 -4.765,16.139 -4.998,34.52 -6.468,51.152 -2.57,29.066 -4.435,58.196 -5.991,87.332 -1.187,22.23 -2.162,44.471 -2.922,66.719 -0.947,27.728 -1.789,55.461 -3.17,83.172 -1.234,24.772 -2.293,50.026 -7.466,74.361 -2.93,13.786 -7.565,28.391 -18.288,38.186 -15.928,14.549 -40.814,15.045 -61.081,15.703 -36.482,1.184 -75.679,3.55 -111.833,-2.547 -9.286,-1.566 -18.676,-4.183 -26.504,-9.615 -11.185,-7.762 -16.996,-20.351 -20.5,-33.117 -7.047,-25.671 -7.875,-53.199 -9.226,-79.621 -0.485,-9.488 -0.904,-19.324 -1.289,-28.808 -0.97,-23.892 -1.783,-47.789 -2.748,-71.681 -0.885,-21.897 -1.843,-43.792 -3.053,-65.674 -3.908,-70.672 -2.071,-171.509 -82.12,-201.858 -26.269,-9.96 -58.991,-7.496 -86.153,-6.129 -18.624,0.937 -38.774,2.991 -54.564,13.891 -16.907,11.672 -25.184,31.542 -30.43,50.676 -9.864,35.977 -12.207,74.148 -14.522,111.202 -6.476,103.65 -6.722,207.656 -9.814,311.437 -1.645,55.215 -1.072,112.512 -12.027,166.912 -3.477,17.265 -8.671,36.374 -21.973,48.854 -13.395,12.568 -32.696,14.871 -50.223,15.844 -29.776,1.653 -59.927,0.758 -89.735,-0.058 -17.289,-0.473 -34.614,-1.088 -51.845,-2.643 -5.304,-0.479 -15.669,0.061 -20.055,-3.69" />
</svg>
